%YAML 1.1
%TAG !u! tag:unity3d.com,2011:
--- !u!29 &1
OcclusionCullingSettings:
  m_ObjectHideFlags: 0
  serializedVersion: 2
  m_OcclusionBakeSettings:
    smallestOccluder: 5
    smallestHole: 0.25
    backfaceThreshold: 100
  m_SceneGUID: 00000000000000000000000000000000
  m_OcclusionCullingData: {fileID: 0}
--- !u!104 &2
RenderSettings:
  m_ObjectHideFlags: 0
  serializedVersion: 9
  m_Fog: 0
  m_FogColor: {r: 0.5, g: 0.5, b: 0.5, a: 1}
  m_FogMode: 3
  m_FogDensity: 0.01
  m_LinearFogStart: 0
  m_LinearFogEnd: 300
  m_AmbientSkyColor: {r: 0.212, g: 0.227, b: 0.259, a: 1}
  m_AmbientEquatorColor: {r: 0.114, g: 0.125, b: 0.133, a: 1}
  m_AmbientGroundColor: {r: 0.047, g: 0.043, b: 0.035, a: 1}
  m_AmbientIntensity: 1
  m_AmbientMode: 3
  m_SubtractiveShadowColor: {r: 0.42, g: 0.478, b: 0.627, a: 1}
  m_SkyboxMaterial: {fileID: 0}
  m_HaloStrength: 0.5
  m_FlareStrength: 1
  m_FlareFadeSpeed: 3
  m_HaloTexture: {fileID: 0}
  m_SpotCookie: {fileID: 10001, guid: 0000000000000000e000000000000000, type: 0}
  m_DefaultReflectionMode: 0
  m_DefaultReflectionResolution: 128
  m_ReflectionBounces: 1
  m_ReflectionIntensity: 1
  m_CustomReflection: {fileID: 0}
  m_Sun: {fileID: 0}
  m_IndirectSpecularColor: {r: 0, g: 0, b: 0, a: 1}
  m_UseRadianceAmbientProbe: 0
--- !u!157 &3
LightmapSettings:
  m_ObjectHideFlags: 0
  serializedVersion: 11
  m_GIWorkflowMode: 1
  m_GISettings:
    serializedVersion: 2
    m_BounceScale: 1
    m_IndirectOutputScale: 1
    m_AlbedoBoost: 1
    m_EnvironmentLightingMode: 0
    m_EnableBakedLightmaps: 0
    m_EnableRealtimeLightmaps: 0
  m_LightmapEditorSettings:
    serializedVersion: 12
    m_Resolution: 2
    m_BakeResolution: 40
    m_AtlasSize: 1024
    m_AO: 0
    m_AOMaxDistance: 1
    m_CompAOExponent: 1
    m_CompAOExponentDirect: 0
    m_ExtractAmbientOcclusion: 0
    m_Padding: 2
    m_LightmapParameters: {fileID: 0}
    m_LightmapsBakeMode: 1
    m_TextureCompression: 1
    m_FinalGather: 0
    m_FinalGatherFiltering: 1
    m_FinalGatherRayCount: 256
    m_ReflectionCompression: 2
    m_MixedBakeMode: 2
    m_BakeBackend: 0
    m_PVRSampling: 1
    m_PVRDirectSampleCount: 32
    m_PVRSampleCount: 500
    m_PVRBounces: 2
    m_PVREnvironmentSampleCount: 500
    m_PVREnvironmentReferencePointCount: 2048
    m_PVRFilteringMode: 2
    m_PVRDenoiserTypeDirect: 0
    m_PVRDenoiserTypeIndirect: 0
    m_PVRDenoiserTypeAO: 0
    m_PVRFilterTypeDirect: 0
    m_PVRFilterTypeIndirect: 0
    m_PVRFilterTypeAO: 0
    m_PVREnvironmentMIS: 0
    m_PVRCulling: 1
    m_PVRFilteringGaussRadiusDirect: 1
    m_PVRFilteringGaussRadiusIndirect: 5
    m_PVRFilteringGaussRadiusAO: 2
    m_PVRFilteringAtrousPositionSigmaDirect: 0.5
    m_PVRFilteringAtrousPositionSigmaIndirect: 2
    m_PVRFilteringAtrousPositionSigmaAO: 1
    m_ExportTrainingData: 0
    m_TrainingDataDestination: TrainingData
    m_LightProbeSampleCountMultiplier: 4
  m_LightingDataAsset: {fileID: 0}
  m_UseShadowmask: 1
--- !u!196 &4
NavMeshSettings:
  serializedVersion: 2
  m_ObjectHideFlags: 0
  m_BuildSettings:
    serializedVersion: 2
    agentTypeID: 0
    agentRadius: 0.5
    agentHeight: 2
    agentSlope: 45
    agentClimb: 0.4
    ledgeDropHeight: 0
    maxJumpAcrossDistance: 0
    minRegionArea: 2
    manualCellSize: 0
    cellSize: 0.16666667
    manualTileSize: 0
    tileSize: 256
    accuratePlacement: 0
    debug:
      m_Flags: 0
  m_NavMeshData: {fileID: 0}
--- !u!1 &136923260
GameObject:
  m_ObjectHideFlags: 0
  m_CorrespondingSourceObject: {fileID: 0}
  m_PrefabInstance: {fileID: 0}
  m_PrefabAsset: {fileID: 0}
  serializedVersion: 6
  m_Component:
  - component: {fileID: 136923262}
  - component: {fileID: 136923261}
  m_Layer: 0
  m_Name: Concete
  m_TagString: Untagged
  m_Icon: {fileID: 0}
  m_NavMeshLayer: 0
  m_StaticEditorFlags: 0
  m_IsActive: 1
--- !u!212 &136923261
SpriteRenderer:
  m_ObjectHideFlags: 0
  m_CorrespondingSourceObject: {fileID: 0}
  m_PrefabInstance: {fileID: 0}
  m_PrefabAsset: {fileID: 0}
  m_GameObject: {fileID: 136923260}
  m_Enabled: 1
  m_CastShadows: 0
  m_ReceiveShadows: 0
  m_DynamicOccludee: 1
  m_MotionVectors: 1
  m_LightProbeUsage: 1
  m_ReflectionProbeUsage: 1
  m_RayTracingMode: 0
  m_RenderingLayerMask: 1
  m_RendererPriority: 0
  m_Materials:
  - {fileID: 10754, guid: 0000000000000000f000000000000000, type: 0}
  m_StaticBatchInfo:
    firstSubMesh: 0
    subMeshCount: 0
  m_StaticBatchRoot: {fileID: 0}
  m_ProbeAnchor: {fileID: 0}
  m_LightProbeVolumeOverride: {fileID: 0}
  m_ScaleInLightmap: 1
  m_ReceiveGI: 1
  m_PreserveUVs: 0
  m_IgnoreNormalsForChartDetection: 0
  m_ImportantGI: 0
  m_StitchLightmapSeams: 1
  m_SelectedEditorRenderState: 0
  m_MinimumChartSize: 4
  m_AutoUVMaxDistance: 0.5
  m_AutoUVMaxAngle: 89
  m_LightmapParameters: {fileID: 0}
  m_SortingLayerID: 0
  m_SortingLayer: 0
  m_SortingOrder: 0
  m_Sprite: {fileID: 21300000, guid: 8b4594f6bbd0345219da08506c19c9ed, type: 3}
  m_Color: {r: 1, g: 1, b: 1, a: 1}
  m_FlipX: 0
  m_FlipY: 0
  m_DrawMode: 0
  m_Size: {x: 1, y: 1}
  m_AdaptiveModeThreshold: 0.5
  m_SpriteTileMode: 0
  m_WasSpriteAssigned: 1
  m_MaskInteraction: 0
  m_SpriteSortPoint: 0
--- !u!4 &136923262
Transform:
  m_ObjectHideFlags: 0
  m_CorrespondingSourceObject: {fileID: 0}
  m_PrefabInstance: {fileID: 0}
  m_PrefabAsset: {fileID: 0}
  m_GameObject: {fileID: 136923260}
  m_LocalRotation: {x: 0, y: 0, z: 0, w: 1}
  m_LocalPosition: {x: -0, y: 4.7, z: 0}
  m_LocalScale: {x: 18, y: 0.6, z: 1}
  m_Children: []
  m_Father: {fileID: 0}
  m_RootOrder: 1
  m_LocalEulerAnglesHint: {x: 0, y: 0, z: 0}
--- !u!1001 &197838971
PrefabInstance:
  m_ObjectHideFlags: 0
  serializedVersion: 2
  m_Modification:
    m_TransformParent: {fileID: 0}
    m_Modifications:
    - target: {fileID: 1636488391402059771, guid: 41187c2cb08864af6a588bc1752f55f4,
        type: 3}
      propertyPath: m_ConnectedAnchor.y
      value: -0.00000012619418
      objectReference: {fileID: 0}
    - target: {fileID: 1636488391583387024, guid: 41187c2cb08864af6a588bc1752f55f4,
        type: 3}
      propertyPath: m_ConnectedAnchor.y
      value: -0.000000015862494
      objectReference: {fileID: 0}
    - target: {fileID: 1636488391674733458, guid: 41187c2cb08864af6a588bc1752f55f4,
        type: 3}
      propertyPath: m_ConnectedAnchor.x
      value: 4.217192
      objectReference: {fileID: 0}
    - target: {fileID: 1636488391780383177, guid: 41187c2cb08864af6a588bc1752f55f4,
        type: 3}
      propertyPath: m_ConnectedAnchor.y
      value: -0.00000007521496
      objectReference: {fileID: 0}
    - target: {fileID: 1636488392539954520, guid: 41187c2cb08864af6a588bc1752f55f4,
        type: 3}
      propertyPath: m_ConnectedAnchor.y
      value: -0.00000008808541
      objectReference: {fileID: 0}
    - target: {fileID: 1636488392757190345, guid: 41187c2cb08864af6a588bc1752f55f4,
        type: 3}
      propertyPath: m_ConnectedAnchor.y
      value: 0.00000007916236
      objectReference: {fileID: 0}
    - target: {fileID: 1636488393118870525, guid: 41187c2cb08864af6a588bc1752f55f4,
        type: 3}
      propertyPath: m_ConnectedAnchor.y
      value: -0.000000013504174
      objectReference: {fileID: 0}
    - target: {fileID: 1636488393277790836, guid: 41187c2cb08864af6a588bc1752f55f4,
        type: 3}
      propertyPath: m_LocalPosition.x
      value: 3.16
      objectReference: {fileID: 0}
    - target: {fileID: 1636488393277790836, guid: 41187c2cb08864af6a588bc1752f55f4,
        type: 3}
      propertyPath: m_LocalPosition.y
      value: 4.36
      objectReference: {fileID: 0}
    - target: {fileID: 1636488393277790836, guid: 41187c2cb08864af6a588bc1752f55f4,
        type: 3}
      propertyPath: m_LocalPosition.z
      value: 0
      objectReference: {fileID: 0}
    - target: {fileID: 1636488393277790836, guid: 41187c2cb08864af6a588bc1752f55f4,
        type: 3}
      propertyPath: m_LocalRotation.x
      value: 0
      objectReference: {fileID: 0}
    - target: {fileID: 1636488393277790836, guid: 41187c2cb08864af6a588bc1752f55f4,
        type: 3}
      propertyPath: m_LocalRotation.y
      value: 0
      objectReference: {fileID: 0}
    - target: {fileID: 1636488393277790836, guid: 41187c2cb08864af6a588bc1752f55f4,
        type: 3}
      propertyPath: m_LocalRotation.z
      value: -0.7071068
      objectReference: {fileID: 0}
    - target: {fileID: 1636488393277790836, guid: 41187c2cb08864af6a588bc1752f55f4,
        type: 3}
      propertyPath: m_LocalRotation.w
      value: 0.7071068
      objectReference: {fileID: 0}
    - target: {fileID: 1636488393277790836, guid: 41187c2cb08864af6a588bc1752f55f4,
        type: 3}
      propertyPath: m_RootOrder
      value: 4
      objectReference: {fileID: 0}
    - target: {fileID: 1636488393277790836, guid: 41187c2cb08864af6a588bc1752f55f4,
        type: 3}
      propertyPath: m_LocalEulerAnglesHint.x
      value: 0
      objectReference: {fileID: 0}
    - target: {fileID: 1636488393277790836, guid: 41187c2cb08864af6a588bc1752f55f4,
        type: 3}
      propertyPath: m_LocalEulerAnglesHint.y
      value: 0
      objectReference: {fileID: 0}
    - target: {fileID: 1636488393277790836, guid: 41187c2cb08864af6a588bc1752f55f4,
        type: 3}
      propertyPath: m_LocalEulerAnglesHint.z
      value: -90
      objectReference: {fileID: 0}
    - target: {fileID: 1636488393277790842, guid: 41187c2cb08864af6a588bc1752f55f4,
        type: 3}
      propertyPath: m_Name
      value: Ball on line (1)
      objectReference: {fileID: 0}
    - target: {fileID: 1636488393321850370, guid: 41187c2cb08864af6a588bc1752f55f4,
        type: 3}
      propertyPath: m_ConnectedAnchor.y
      value: -0.00000009732315
      objectReference: {fileID: 0}
    - target: {fileID: 1636488393334589029, guid: 41187c2cb08864af6a588bc1752f55f4,
        type: 3}
      propertyPath: m_ConnectedAnchor.y
      value: -0.00000035809327
      objectReference: {fileID: 0}
    - target: {fileID: 1636488393404908961, guid: 41187c2cb08864af6a588bc1752f55f4,
        type: 3}
      propertyPath: m_ConnectedAnchor.y
      value: -0.01145118
      objectReference: {fileID: 0}
    m_RemovedComponents: []
  m_SourcePrefab: {fileID: 100100000, guid: 41187c2cb08864af6a588bc1752f55f4, type: 3}
--- !u!1001 &422552173
PrefabInstance:
  m_ObjectHideFlags: 0
  serializedVersion: 2
  m_Modification:
    m_TransformParent: {fileID: 0}
    m_Modifications:
    - target: {fileID: 1636488391402059771, guid: 41187c2cb08864af6a588bc1752f55f4,
        type: 3}
      propertyPath: m_ConnectedAnchor.y
      value: -0.00000012619418
      objectReference: {fileID: 0}
    - target: {fileID: 1636488391583387024, guid: 41187c2cb08864af6a588bc1752f55f4,
        type: 3}
      propertyPath: m_ConnectedAnchor.y
      value: -0.000000015862494
      objectReference: {fileID: 0}
    - target: {fileID: 1636488391674733458, guid: 41187c2cb08864af6a588bc1752f55f4,
        type: 3}
      propertyPath: m_ConnectedAnchor.x
      value: 3.1471922
      objectReference: {fileID: 0}
    - target: {fileID: 1636488391780383177, guid: 41187c2cb08864af6a588bc1752f55f4,
        type: 3}
      propertyPath: m_ConnectedAnchor.y
      value: -0.00000007521496
      objectReference: {fileID: 0}
    - target: {fileID: 1636488392539954520, guid: 41187c2cb08864af6a588bc1752f55f4,
        type: 3}
      propertyPath: m_ConnectedAnchor.y
      value: -0.00000032650382
      objectReference: {fileID: 0}
    - target: {fileID: 1636488392757190345, guid: 41187c2cb08864af6a588bc1752f55f4,
        type: 3}
      propertyPath: m_ConnectedAnchor.y
      value: -0.00000015925605
      objectReference: {fileID: 0}
    - target: {fileID: 1636488393118870525, guid: 41187c2cb08864af6a588bc1752f55f4,
        type: 3}
      propertyPath: m_ConnectedAnchor.y
      value: -0.0000002519227
      objectReference: {fileID: 0}
    - target: {fileID: 1636488393277790836, guid: 41187c2cb08864af6a588bc1752f55f4,
        type: 3}
      propertyPath: m_LocalPosition.x
      value: 2.09
      objectReference: {fileID: 0}
    - target: {fileID: 1636488393277790836, guid: 41187c2cb08864af6a588bc1752f55f4,
        type: 3}
      propertyPath: m_LocalPosition.y
      value: 4.36
      objectReference: {fileID: 0}
    - target: {fileID: 1636488393277790836, guid: 41187c2cb08864af6a588bc1752f55f4,
        type: 3}
      propertyPath: m_LocalPosition.z
      value: 0
      objectReference: {fileID: 0}
    - target: {fileID: 1636488393277790836, guid: 41187c2cb08864af6a588bc1752f55f4,
        type: 3}
      propertyPath: m_LocalRotation.x
      value: 0
      objectReference: {fileID: 0}
    - target: {fileID: 1636488393277790836, guid: 41187c2cb08864af6a588bc1752f55f4,
        type: 3}
      propertyPath: m_LocalRotation.y
      value: 0
      objectReference: {fileID: 0}
    - target: {fileID: 1636488393277790836, guid: 41187c2cb08864af6a588bc1752f55f4,
        type: 3}
      propertyPath: m_LocalRotation.z
      value: -0.7071068
      objectReference: {fileID: 0}
    - target: {fileID: 1636488393277790836, guid: 41187c2cb08864af6a588bc1752f55f4,
        type: 3}
      propertyPath: m_LocalRotation.w
      value: 0.7071068
      objectReference: {fileID: 0}
    - target: {fileID: 1636488393277790836, guid: 41187c2cb08864af6a588bc1752f55f4,
        type: 3}
      propertyPath: m_RootOrder
      value: 5
      objectReference: {fileID: 0}
    - target: {fileID: 1636488393277790836, guid: 41187c2cb08864af6a588bc1752f55f4,
        type: 3}
      propertyPath: m_LocalEulerAnglesHint.x
      value: 0
      objectReference: {fileID: 0}
    - target: {fileID: 1636488393277790836, guid: 41187c2cb08864af6a588bc1752f55f4,
        type: 3}
      propertyPath: m_LocalEulerAnglesHint.y
      value: 0
      objectReference: {fileID: 0}
    - target: {fileID: 1636488393277790836, guid: 41187c2cb08864af6a588bc1752f55f4,
        type: 3}
      propertyPath: m_LocalEulerAnglesHint.z
      value: -90
      objectReference: {fileID: 0}
    - target: {fileID: 1636488393277790842, guid: 41187c2cb08864af6a588bc1752f55f4,
        type: 3}
      propertyPath: m_Name
      value: Ball on line (2)
      objectReference: {fileID: 0}
    - target: {fileID: 1636488393321850370, guid: 41187c2cb08864af6a588bc1752f55f4,
        type: 3}
      propertyPath: m_ConnectedAnchor.y
      value: 0.00000014109528
      objectReference: {fileID: 0}
    - target: {fileID: 1636488393334589029, guid: 41187c2cb08864af6a588bc1752f55f4,
        type: 3}
      propertyPath: m_ConnectedAnchor.y
      value: 0.00000011874354
      objectReference: {fileID: 0}
    - target: {fileID: 1636488393404908961, guid: 41187c2cb08864af6a588bc1752f55f4,
        type: 3}
      propertyPath: m_ConnectedAnchor.y
      value: -0.01145118
      objectReference: {fileID: 0}
    m_RemovedComponents: []
  m_SourcePrefab: {fileID: 100100000, guid: 41187c2cb08864af6a588bc1752f55f4, type: 3}
--- !u!1 &477678231
GameObject:
  m_ObjectHideFlags: 0
  m_CorrespondingSourceObject: {fileID: 0}
  m_PrefabInstance: {fileID: 0}
  m_PrefabAsset: {fileID: 0}
  serializedVersion: 6
  m_Component:
  - component: {fileID: 477678233}
  - component: {fileID: 477678232}
  m_Layer: 0
  m_Name: Floor
  m_TagString: Untagged
  m_Icon: {fileID: 0}
  m_NavMeshLayer: 0
  m_StaticEditorFlags: 0
  m_IsActive: 1
--- !u!212 &477678232
SpriteRenderer:
  m_ObjectHideFlags: 0
  m_CorrespondingSourceObject: {fileID: 0}
  m_PrefabInstance: {fileID: 0}
  m_PrefabAsset: {fileID: 0}
  m_GameObject: {fileID: 477678231}
  m_Enabled: 1
  m_CastShadows: 0
  m_ReceiveShadows: 0
  m_DynamicOccludee: 1
  m_MotionVectors: 1
  m_LightProbeUsage: 1
  m_ReflectionProbeUsage: 1
  m_RayTracingMode: 0
  m_RenderingLayerMask: 1
  m_RendererPriority: 0
  m_Materials:
  - {fileID: 10754, guid: 0000000000000000f000000000000000, type: 0}
  m_StaticBatchInfo:
    firstSubMesh: 0
    subMeshCount: 0
  m_StaticBatchRoot: {fileID: 0}
  m_ProbeAnchor: {fileID: 0}
  m_LightProbeVolumeOverride: {fileID: 0}
  m_ScaleInLightmap: 1
  m_ReceiveGI: 1
  m_PreserveUVs: 0
  m_IgnoreNormalsForChartDetection: 0
  m_ImportantGI: 0
  m_StitchLightmapSeams: 1
  m_SelectedEditorRenderState: 0
  m_MinimumChartSize: 4
  m_AutoUVMaxDistance: 0.5
  m_AutoUVMaxAngle: 89
  m_LightmapParameters: {fileID: 0}
  m_SortingLayerID: 0
  m_SortingLayer: 0
  m_SortingOrder: 0
  m_Sprite: {fileID: 21300000, guid: 8b4594f6bbd0345219da08506c19c9ed, type: 3}
  m_Color: {r: 1, g: 1, b: 1, a: 1}
  m_FlipX: 0
  m_FlipY: 0
  m_DrawMode: 0
  m_Size: {x: 1, y: 1}
  m_AdaptiveModeThreshold: 0.5
  m_SpriteTileMode: 0
  m_WasSpriteAssigned: 1
  m_MaskInteraction: 0
  m_SpriteSortPoint: 0
--- !u!4 &477678233
Transform:
  m_ObjectHideFlags: 0
  m_CorrespondingSourceObject: {fileID: 0}
  m_PrefabInstance: {fileID: 0}
  m_PrefabAsset: {fileID: 0}
  m_GameObject: {fileID: 477678231}
  m_LocalRotation: {x: 0, y: 0, z: 0, w: 1}
  m_LocalPosition: {x: -0, y: -4.7, z: 0}
  m_LocalScale: {x: 18, y: 0.6, z: 1}
  m_Children: []
  m_Father: {fileID: 0}
  m_RootOrder: 2
  m_LocalEulerAnglesHint: {x: 0, y: 0, z: 0}
--- !u!1 &519420028
GameObject:
  m_ObjectHideFlags: 0
  m_CorrespondingSourceObject: {fileID: 0}
  m_PrefabInstance: {fileID: 0}
  m_PrefabAsset: {fileID: 0}
  serializedVersion: 6
  m_Component:
  - component: {fileID: 519420032}
  - component: {fileID: 519420031}
  - component: {fileID: 519420029}
  m_Layer: 0
  m_Name: Main Camera
  m_TagString: MainCamera
  m_Icon: {fileID: 0}
  m_NavMeshLayer: 0
  m_StaticEditorFlags: 0
  m_IsActive: 1
--- !u!81 &519420029
AudioListener:
  m_ObjectHideFlags: 0
  m_CorrespondingSourceObject: {fileID: 0}
  m_PrefabInstance: {fileID: 0}
  m_PrefabAsset: {fileID: 0}
  m_GameObject: {fileID: 519420028}
  m_Enabled: 1
--- !u!20 &519420031
Camera:
  m_ObjectHideFlags: 0
  m_CorrespondingSourceObject: {fileID: 0}
  m_PrefabInstance: {fileID: 0}
  m_PrefabAsset: {fileID: 0}
  m_GameObject: {fileID: 519420028}
  m_Enabled: 1
  serializedVersion: 2
  m_ClearFlags: 2
  m_BackGroundColor: {r: 0, g: 0, b: 0, a: 0}
  m_projectionMatrixMode: 1
  m_GateFitMode: 2
  m_FOVAxisMode: 0
  m_SensorSize: {x: 36, y: 24}
  m_LensShift: {x: 0, y: 0}
  m_FocalLength: 50
  m_NormalizedViewPortRect:
    serializedVersion: 2
    x: 0
    y: 0
    width: 1
    height: 1
  near clip plane: 0.3
  far clip plane: 1000
  field of view: 60
  orthographic: 1
  orthographic size: 5
  m_Depth: -1
  m_CullingMask:
    serializedVersion: 2
    m_Bits: 4294967295
  m_RenderingPath: -1
  m_TargetTexture: {fileID: 0}
  m_TargetDisplay: 0
  m_TargetEye: 0
  m_HDR: 1
  m_AllowMSAA: 0
  m_AllowDynamicResolution: 0
  m_ForceIntoRT: 0
  m_OcclusionCulling: 0
  m_StereoConvergence: 10
  m_StereoSeparation: 0.022
--- !u!4 &519420032
Transform:
  m_ObjectHideFlags: 0
  m_CorrespondingSourceObject: {fileID: 0}
  m_PrefabInstance: {fileID: 0}
  m_PrefabAsset: {fileID: 0}
  m_GameObject: {fileID: 519420028}
  m_LocalRotation: {x: 0, y: 0, z: 0, w: 1}
  m_LocalPosition: {x: 0, y: 0, z: -10}
  m_LocalScale: {x: 1, y: 1, z: 1}
  m_Children: []
  m_Father: {fileID: 0}
  m_RootOrder: 0
  m_LocalEulerAnglesHint: {x: 0, y: 0, z: 0}
--- !u!1001 &799137263
PrefabInstance:
  m_ObjectHideFlags: 0
  serializedVersion: 2
  m_Modification:
    m_TransformParent: {fileID: 0}
    m_Modifications:
    - target: {fileID: 1636488391402059771, guid: 41187c2cb08864af6a588bc1752f55f4,
        type: 3}
      propertyPath: m_ConnectedAnchor.y
      value: -0.00000006658955
      objectReference: {fileID: 0}
    - target: {fileID: 1636488391583387024, guid: 41187c2cb08864af6a588bc1752f55f4,
        type: 3}
      propertyPath: m_ConnectedAnchor.y
      value: -0.00000007546712
      objectReference: {fileID: 0}
    - target: {fileID: 1636488391674733458, guid: 41187c2cb08864af6a588bc1752f55f4,
        type: 3}
      propertyPath: m_ConnectedAnchor.x
      value: 0.97719216
      objectReference: {fileID: 0}
    - target: {fileID: 1636488391780383177, guid: 41187c2cb08864af6a588bc1752f55f4,
        type: 3}
      propertyPath: m_ConnectedAnchor.y
      value: -0.0000001348196
      objectReference: {fileID: 0}
    - target: {fileID: 1636488392539954520, guid: 41187c2cb08864af6a588bc1752f55f4,
        type: 3}
      propertyPath: m_ConnectedAnchor.y
      value: -0.0000002668992
      objectReference: {fileID: 0}
    - target: {fileID: 1636488392757190345, guid: 41187c2cb08864af6a588bc1752f55f4,
        type: 3}
      propertyPath: m_ConnectedAnchor.y
      value: 0.00000001955776
      objectReference: {fileID: 0}
    - target: {fileID: 1636488393118870525, guid: 41187c2cb08864af6a588bc1752f55f4,
        type: 3}
      propertyPath: m_ConnectedAnchor.y
      value: -0.00000007310881
      objectReference: {fileID: 0}
    - target: {fileID: 1636488393277790836, guid: 41187c2cb08864af6a588bc1752f55f4,
        type: 3}
      propertyPath: m_LocalPosition.x
      value: -0.14
      objectReference: {fileID: 0}
    - target: {fileID: 1636488393277790836, guid: 41187c2cb08864af6a588bc1752f55f4,
        type: 3}
      propertyPath: m_LocalPosition.y
      value: 4.36
      objectReference: {fileID: 0}
    - target: {fileID: 1636488393277790836, guid: 41187c2cb08864af6a588bc1752f55f4,
        type: 3}
      propertyPath: m_LocalPosition.z
      value: 0
      objectReference: {fileID: 0}
    - target: {fileID: 1636488393277790836, guid: 41187c2cb08864af6a588bc1752f55f4,
        type: 3}
      propertyPath: m_LocalRotation.x
      value: 0
      objectReference: {fileID: 0}
    - target: {fileID: 1636488393277790836, guid: 41187c2cb08864af6a588bc1752f55f4,
        type: 3}
      propertyPath: m_LocalRotation.y
      value: 0
      objectReference: {fileID: 0}
    - target: {fileID: 1636488393277790836, guid: 41187c2cb08864af6a588bc1752f55f4,
        type: 3}
      propertyPath: m_LocalRotation.z
      value: -0.7071068
      objectReference: {fileID: 0}
    - target: {fileID: 1636488393277790836, guid: 41187c2cb08864af6a588bc1752f55f4,
        type: 3}
      propertyPath: m_LocalRotation.w
      value: 0.7071068
      objectReference: {fileID: 0}
    - target: {fileID: 1636488393277790836, guid: 41187c2cb08864af6a588bc1752f55f4,
        type: 3}
      propertyPath: m_RootOrder
      value: 7
      objectReference: {fileID: 0}
    - target: {fileID: 1636488393277790836, guid: 41187c2cb08864af6a588bc1752f55f4,
        type: 3}
      propertyPath: m_LocalEulerAnglesHint.x
      value: 0
      objectReference: {fileID: 0}
    - target: {fileID: 1636488393277790836, guid: 41187c2cb08864af6a588bc1752f55f4,
        type: 3}
      propertyPath: m_LocalEulerAnglesHint.y
      value: 0
      objectReference: {fileID: 0}
    - target: {fileID: 1636488393277790836, guid: 41187c2cb08864af6a588bc1752f55f4,
        type: 3}
      propertyPath: m_LocalEulerAnglesHint.z
      value: -90
      objectReference: {fileID: 0}
    - target: {fileID: 1636488393277790842, guid: 41187c2cb08864af6a588bc1752f55f4,
        type: 3}
      propertyPath: m_Name
      value: Ball on line (4)
      objectReference: {fileID: 0}
    - target: {fileID: 1636488393321850370, guid: 41187c2cb08864af6a588bc1752f55f4,
        type: 3}
      propertyPath: m_ConnectedAnchor.y
      value: 0.000000021886068
      objectReference: {fileID: 0}
    - target: {fileID: 1636488393334589029, guid: 41187c2cb08864af6a588bc1752f55f4,
        type: 3}
      propertyPath: m_ConnectedAnchor.y
      value: -0.00000006007026
      objectReference: {fileID: 0}
    - target: {fileID: 1636488393404908961, guid: 41187c2cb08864af6a588bc1752f55f4,
        type: 3}
      propertyPath: m_ConnectedAnchor.y
      value: -0.01145124
      objectReference: {fileID: 0}
    m_RemovedComponents: []
  m_SourcePrefab: {fileID: 100100000, guid: 41187c2cb08864af6a588bc1752f55f4, type: 3}
--- !u!1001 &1528498094
PrefabInstance:
  m_ObjectHideFlags: 0
  serializedVersion: 2
  m_Modification:
    m_TransformParent: {fileID: 0}
    m_Modifications:
    - target: {fileID: 1636488391402059771, guid: 41187c2cb08864af6a588bc1752f55f4,
        type: 3}
      propertyPath: m_ConnectedAnchor.y
      value: -0.00000012619418
      objectReference: {fileID: 0}
    - target: {fileID: 1636488391583387024, guid: 41187c2cb08864af6a588bc1752f55f4,
        type: 3}
      propertyPath: m_ConnectedAnchor.y
      value: -0.000000015862494
      objectReference: {fileID: 0}
    - target: {fileID: 1636488391674733458, guid: 41187c2cb08864af6a588bc1752f55f4,
        type: 3}
      propertyPath: m_ConnectedAnchor.x
      value: 2.077192
      objectReference: {fileID: 0}
    - target: {fileID: 1636488391780383177, guid: 41187c2cb08864af6a588bc1752f55f4,
        type: 3}
      propertyPath: m_ConnectedAnchor.y
      value: -0.00000007521496
      objectReference: {fileID: 0}
    - target: {fileID: 1636488392539954520, guid: 41187c2cb08864af6a588bc1752f55f4,
        type: 3}
      propertyPath: m_ConnectedAnchor.y
      value: -0.00000032650382
      objectReference: {fileID: 0}
    - target: {fileID: 1636488392757190345, guid: 41187c2cb08864af6a588bc1752f55f4,
        type: 3}
      propertyPath: m_ConnectedAnchor.y
      value: -0.00000015925605
      objectReference: {fileID: 0}
    - target: {fileID: 1636488393118870525, guid: 41187c2cb08864af6a588bc1752f55f4,
        type: 3}
      propertyPath: m_ConnectedAnchor.y
      value: -0.0000002519227
      objectReference: {fileID: 0}
    - target: {fileID: 1636488393277790836, guid: 41187c2cb08864af6a588bc1752f55f4,
        type: 3}
      propertyPath: m_LocalPosition.x
      value: 0.99
      objectReference: {fileID: 0}
    - target: {fileID: 1636488393277790836, guid: 41187c2cb08864af6a588bc1752f55f4,
        type: 3}
      propertyPath: m_LocalPosition.y
      value: 4.36
      objectReference: {fileID: 0}
    - target: {fileID: 1636488393277790836, guid: 41187c2cb08864af6a588bc1752f55f4,
        type: 3}
      propertyPath: m_LocalPosition.z
      value: 0
      objectReference: {fileID: 0}
    - target: {fileID: 1636488393277790836, guid: 41187c2cb08864af6a588bc1752f55f4,
        type: 3}
      propertyPath: m_LocalRotation.x
      value: 0
      objectReference: {fileID: 0}
    - target: {fileID: 1636488393277790836, guid: 41187c2cb08864af6a588bc1752f55f4,
        type: 3}
      propertyPath: m_LocalRotation.y
      value: 0
      objectReference: {fileID: 0}
    - target: {fileID: 1636488393277790836, guid: 41187c2cb08864af6a588bc1752f55f4,
        type: 3}
      propertyPath: m_LocalRotation.z
      value: -0.7071068
      objectReference: {fileID: 0}
    - target: {fileID: 1636488393277790836, guid: 41187c2cb08864af6a588bc1752f55f4,
        type: 3}
      propertyPath: m_LocalRotation.w
      value: 0.7071068
      objectReference: {fileID: 0}
    - target: {fileID: 1636488393277790836, guid: 41187c2cb08864af6a588bc1752f55f4,
        type: 3}
      propertyPath: m_RootOrder
      value: 6
      objectReference: {fileID: 0}
    - target: {fileID: 1636488393277790836, guid: 41187c2cb08864af6a588bc1752f55f4,
        type: 3}
      propertyPath: m_LocalEulerAnglesHint.x
      value: 0
      objectReference: {fileID: 0}
    - target: {fileID: 1636488393277790836, guid: 41187c2cb08864af6a588bc1752f55f4,
        type: 3}
      propertyPath: m_LocalEulerAnglesHint.y
      value: 0
      objectReference: {fileID: 0}
    - target: {fileID: 1636488393277790836, guid: 41187c2cb08864af6a588bc1752f55f4,
        type: 3}
      propertyPath: m_LocalEulerAnglesHint.z
      value: -90
      objectReference: {fileID: 0}
    - target: {fileID: 1636488393277790842, guid: 41187c2cb08864af6a588bc1752f55f4,
        type: 3}
      propertyPath: m_Name
      value: Ball on line (3)
      objectReference: {fileID: 0}
    - target: {fileID: 1636488393321850370, guid: 41187c2cb08864af6a588bc1752f55f4,
        type: 3}
      propertyPath: m_ConnectedAnchor.y
      value: 0.00000014109528
      objectReference: {fileID: 0}
    - target: {fileID: 1636488393334589029, guid: 41187c2cb08864af6a588bc1752f55f4,
        type: 3}
      propertyPath: m_ConnectedAnchor.y
      value: 0.00000011874354
      objectReference: {fileID: 0}
    - target: {fileID: 1636488393404908961, guid: 41187c2cb08864af6a588bc1752f55f4,
        type: 3}
      propertyPath: m_ConnectedAnchor.y
      value: -0.01145118
      objectReference: {fileID: 0}
    m_RemovedComponents: []
  m_SourcePrefab: {fileID: 100100000, guid: 41187c2cb08864af6a588bc1752f55f4, type: 3}
--- !u!1001 &1636488393061495165
PrefabInstance:
  m_ObjectHideFlags: 0
  serializedVersion: 2
  m_Modification:
    m_TransformParent: {fileID: 0}
    m_Modifications:
    - target: {fileID: 1636488393277790836, guid: 41187c2cb08864af6a588bc1752f55f4,
        type: 3}
      propertyPath: m_LocalPosition.x
      value: 4.23
      objectReference: {fileID: 0}
    - target: {fileID: 1636488393277790836, guid: 41187c2cb08864af6a588bc1752f55f4,
        type: 3}
      propertyPath: m_LocalPosition.y
      value: 4.36
      objectReference: {fileID: 0}
    - target: {fileID: 1636488393277790836, guid: 41187c2cb08864af6a588bc1752f55f4,
        type: 3}
      propertyPath: m_LocalPosition.z
      value: 0
      objectReference: {fileID: 0}
    - target: {fileID: 1636488393277790836, guid: 41187c2cb08864af6a588bc1752f55f4,
        type: 3}
      propertyPath: m_LocalRotation.x
      value: 0
      objectReference: {fileID: 0}
    - target: {fileID: 1636488393277790836, guid: 41187c2cb08864af6a588bc1752f55f4,
        type: 3}
      propertyPath: m_LocalRotation.y
      value: 0
      objectReference: {fileID: 0}
    - target: {fileID: 1636488393277790836, guid: 41187c2cb08864af6a588bc1752f55f4,
        type: 3}
      propertyPath: m_LocalRotation.z
      value: -0.7071068
      objectReference: {fileID: 0}
    - target: {fileID: 1636488393277790836, guid: 41187c2cb08864af6a588bc1752f55f4,
        type: 3}
      propertyPath: m_LocalRotation.w
      value: 0.7071068
      objectReference: {fileID: 0}
    - target: {fileID: 1636488393277790836, guid: 41187c2cb08864af6a588bc1752f55f4,
        type: 3}
      propertyPath: m_RootOrder
      value: 3
      objectReference: {fileID: 0}
    - target: {fileID: 1636488393277790836, guid: 41187c2cb08864af6a588bc1752f55f4,
        type: 3}
      propertyPath: m_LocalEulerAnglesHint.x
      value: 0
      objectReference: {fileID: 0}
    - target: {fileID: 1636488393277790836, guid: 41187c2cb08864af6a588bc1752f55f4,
        type: 3}
      propertyPath: m_LocalEulerAnglesHint.y
      value: 0
      objectReference: {fileID: 0}
    - target: {fileID: 1636488393277790836, guid: 41187c2cb08864af6a588bc1752f55f4,
        type: 3}
      propertyPath: m_LocalEulerAnglesHint.z
      value: -90
      objectReference: {fileID: 0}
    - target: {fileID: 1636488393277790842, guid: 41187c2cb08864af6a588bc1752f55f4,
        type: 3}
      propertyPath: m_Name
      value: Ball on line
      objectReference: {fileID: 0}
    m_RemovedComponents: []
  m_SourcePrefab: {fileID: 100100000, guid: 41187c2cb08864af6a588bc1752f55f4, type: 3}
